1 10 20
100 200 125
201 210 89
900 1000 174
11 20 21
21 30 112
31 40 107
41 50 110
51 60 113
61 70 108
71 80 116
81 90 111
91 100 119
101 110 114
111 120 70
121 130 122
131 140 91
141 150 117
151 160 86
161 170 112
171 180 125
181 190 107
191 200 120
201 210 89
211 220 115
221 230 115
231 240 128
241 250 110
251 260 123
261 270 123
271 280 92
281 290 118
291 300 118
301 310 87
311 320 131
321 330 144
331 340 113
341 350 126
351 360 126
361 370 95
371 380 108
381 390 121
391 400 121
401 410 41
411 411 134
412 412 90
413 413 90
414 414 90
415 415 134
416 416 15
417 417 134
418 418 41
419 419 41
420 420 41
421 421 41
422 422 41
423 423 33
424 424 15
425 425 59
426 426 15
427 427 54
428 428 103
429 429 103
430 430 103
431 431 41
432 432 116
433 433 28
434 434 28
435 435 28
436 436 116
437 437 116
438 438 54
439 439 54
440 440 116
441 441 28
442 442 116
443 443 54
444 444 72
445 445 72
446 446 72
447 447 98
448 448 23
449 449 116
450 450 54
460 451 129
470 461 129
480 471 129
490 481 142
500 491 142
510 501 111
520 511 124
530 521 124
540 531 124
550 541 137
560 551 137
570 561 106
580 571 119
590 581 119
600 591 119
610 601 132
620 611 132
630 621 132
640 631 132
650 641 145
660 651 145
670 661 145
680 671 114
690 681 127
700 691 127
710 701 171
720 711 65
730 721 96
740 731 140
750 741 96
760 751 140
770 761 153
780 771 153
790 781 122
800 791 122
810 801 73
820 811 135
830 821 135
840 831 135
850 841 60
860 851 148
870 861 148
880 871 179
890 881 148
900 891 117
910 901 117
