................
----------------------------------------------------------------------
Ran 16 tests in 0.295s

OK
Name             Stmts   Miss Branch BrPart  Cover   Missing
------------------------------------------------------------
Collatz.py          43      1     18      1    97%   147->148, 148
TestCollatz.py      74      0      0      0   100%
------------------------------------------------------------
TOTAL              117      1     18      1    99%
